"chrI","startI","endI","counts","D","pvals","adj.pvals","binIannot2","binJannot2","binIsymbol2","binJsymbol2","chrJ","startJ","endJ"
"chr14",71599502,71603719,28,596912,4.38064440277941e-08,2.45523186314182e-05,"D","I","PCNX","SIPA1L1","chr14",72196480,72200564
"chr14",71603720,71609861,42,591732,5.36304334275428e-12,4.50922349981542e-09,"DNase-CTCF-D-K27ac","I","PCNX","SIPA1L1","chr14",72196480,72200564
"chr14",71609862,71615443,41,585870,1.03049790922682e-11,8.35116456111539e-09,"D","I","PCNX","SIPA1L1","chr14",72196480,72200564
"chr14",71615444,71618694,21,581453,8.68325903102818e-06,0.00366371185968643,"D","I","PCNX","SIPA1L1","chr14",72196480,72200564
"chr14",71618695,71622870,24,577740,5.30450327995702e-07,0.000266485555264583,"D","I","PCNX","SIPA1L1","chr14",72196480,72200564
"chr14",71627218,71631097,18,569365,1.38282244419585e-05,0.00559259512757977,"D","I","PCNX","SIPA1L1","chr14",72196480,72200564
"chr14",71599502,71603719,26,601495,5.15270139889168e-08,2.86759137365106e-05,"D","I","PCNX","SIPA1L1","chr14",72200565,72205646
"chr14",71603720,71609861,48,596315,8.99280649946377e-15,1.11692768577124e-11,"DNase-CTCF-D-K27ac","I","PCNX","SIPA1L1","chr14",72200565,72205646
"chr14",71609862,71615443,31,590453,2.26570195938081e-09,1.42802793118782e-06,"D","I","PCNX","SIPA1L1","chr14",72200565,72205646
"chr14",71618695,71622870,20,582323,3.32590996998672e-06,0.00150957710799468,"D","I","PCNX","SIPA1L1","chr14",72200565,72205646
"chr14",71627218,71631097,24,573948,5.04956340074969e-08,2.81436181389758e-05,"D","I","PCNX","SIPA1L1","chr14",72200565,72205646
"chr14",71599502,71603719,41,606786,3.74034136996215e-13,3.64761291048861e-10,"D","I","PCNX","SIPA1L1","chr14",72205647,72211145
"chr14",71603720,71609861,63,601606,0,0,"DNase-CTCF-D-K27ac","I","PCNX","SIPA1L1","chr14",72205647,72211145
"chr14",71609862,71615443,47,595744,8.99280649946377e-15,1.11692768577124e-11,"D","I","PCNX","SIPA1L1","chr14",72205647,72211145
"chr14",71615444,71618694,29,591327,7.76728903417734e-09,4.65893234122622e-06,"D","I","PCNX","SIPA1L1","chr14",72205647,72211145
"chr14",71618695,71622870,22,587614,5.52783955054537e-07,0.000277130396366548,"D","I","PCNX","SIPA1L1","chr14",72205647,72211145
"chr14",71622871,71625890,18,584016,2.14536311979874e-05,0.00829063794243282,"D","I","PCNX","SIPA1L1","chr14",72205647,72211145
"chr14",71627218,71631097,26,579239,6.8436100120195e-09,4.12351157998301e-06,"D","I","PCNX","SIPA1L1","chr14",72205647,72211145
"chr14",71599502,71603719,32,611305,2.60641952465335e-10,1.80355788591197e-07,"D","D","PCNX","SIPA1L1","chr14",72211146,72214684
"chr14",71603720,71609861,47,606125,5.99520433297585e-15,7.65205377974483e-12,"D","DNase-CTCF-D-K27ac","SIPA1L1","PCNX","chr14",72211146,72214684
"chr14",71609862,71615443,44,600263,5.295763827462e-14,5.81980086474816e-11,"D","D","PCNX","SIPA1L1","chr14",72211146,72214684
"chr14",71615444,71618694,27,595846,2.50536690282743e-08,1.43512342625194e-05,"D","D","PCNX","SIPA1L1","chr14",72211146,72214684
"chr14",71627218,71631097,22,583758,1.39407378973999e-07,7.44533125560338e-05,"D","D","PCNX","SIPA1L1","chr14",72211146,72214684
"chr14",71599502,71603719,37,615195,7.22599757807529e-11,5.30044168808037e-08,"D","D","PCNX","SIPA1L1","chr14",72214685,72218926
"chr14",71603720,71609861,80,610015,0,0,"D","DNase-CTCF-D-K27ac","SIPA1L1","PCNX","chr14",72214685,72218926
"chr14",71609862,71615443,46,604153,2.8599345114344e-13,2.83212800400956e-10,"D","D","PCNX","SIPA1L1","chr14",72214685,72218926
"chr14",71615444,71618694,30,599736,2.08692280123657e-08,1.20397598767045e-05,"D","D","PCNX","SIPA1L1","chr14",72214685,72218926
"chr14",71618695,71622870,34,596023,4.23659995973935e-10,2.86605921511077e-07,"D","D","PCNX","SIPA1L1","chr14",72214685,72218926
"chr14",71627218,71631097,26,587648,3.42494459459886e-08,1.93863643529158e-05,"D","D","PCNX","SIPA1L1","chr14",72214685,72218926
"chr14",71599502,71603719,49,619357,7.99360577730113e-15,1.00092604013181e-11,"CTCF-D","D","SIPA1L1","PCNX","chr14",72218927,72223008
"chr14",71603720,71609861,79,614177,0,0,"CTCF-D","DNase-CTCF-D-K27ac","SIPA1L1","PCNX","chr14",72218927,72223008
"chr14",71609862,71615443,60,608315,0,0,"CTCF-D","D","SIPA1L1","PCNX","chr14",72218927,72223008
"chr14",71615444,71618694,25,603898,4.3445878794568e-07,0.000220496015600883,"CTCF-D","D","SIPA1L1","PCNX","chr14",72218927,72223008
"chr14",71618695,71622870,26,600185,8.84539480550117e-08,4.81396881801186e-05,"CTCF-D","D","SIPA1L1","PCNX","chr14",72218927,72223008
"chr14",71627218,71631097,30,591810,1.11765297017286e-09,7.24985868041341e-07,"CTCF-D","D","SIPA1L1","PCNX","chr14",72218927,72223008
"chr14",71599502,71603719,33,623227,3.72960551331403e-11,2.82593810110034e-08,"D","D","PCNX","SIPA1L1","chr14",72223009,72226666
"chr14",71603720,71609861,40,618047,2.87991852587766e-13,2.85062221649794e-10,"D","DNase-CTCF-D-K27ac","SIPA1L1","PCNX","chr14",72223009,72226666
"chr14",71609862,71615443,40,612185,2.8199664825479e-13,2.79508910356203e-10,"D","D","PCNX","SIPA1L1","chr14",72223009,72226666
"chr14",71615444,71618694,22,607768,4.69125030044815e-07,0.000237175465247757,"D","D","PCNX","SIPA1L1","chr14",72223009,72226666
"chr14",71627218,71631097,20,595680,3.52510462042765e-07,0.000180607197708431,"D","D","PCNX","SIPA1L1","chr14",72223009,72226666
"chr14",71599502,71603719,26,626894,1.52434830313908e-08,8.90261082452391e-06,"D","D","PCNX","SIPA1L1","chr14",72226667,72230341
"chr14",71603720,71609861,42,621714,1.06026298851702e-13,1.11728378641867e-10,"D","DNase-CTCF-D-K27ac","SIPA1L1","PCNX","chr14",72226667,72230341
"chr14",71609862,71615443,42,615852,1.04027897407377e-13,1.09718011915808e-10,"D","D","PCNX","SIPA1L1","chr14",72226667,72230341
"chr14",71615444,71618694,29,611435,3.18775295049534e-09,1.97906798269048e-06,"D","D","PCNX","SIPA1L1","chr14",72226667,72230341
"chr14",71618695,71622870,23,607722,1.26450203974393e-07,6.7815838828803e-05,"D","D","PCNX","SIPA1L1","chr14",72226667,72230341
"chr14",71627218,71631097,20,599347,4.73765871977783e-07,0.0002394106395257,"D","D","PCNX","SIPA1L1","chr14",72226667,72230341
